%YAML 1.1
%TAG !u! tag:unity3d.com,2011:
--- !u!21 &2100000
Material:
  serializedVersion: 6
  m_ObjectHideFlags: 0
  m_CorrespondingSourceObject: {fileID: 0}
  m_PrefabInstance: {fileID: 0}
  m_PrefabAsset: {fileID: 0}
  m_Name: ToonShader_Hair_Clipping_ABN
  m_Shader: {fileID: 4800000, guid: 9baf30ce95c751649b14d96da3a4b4d5, type: 3}
  m_ShaderKeywords: _ _EMISSIVE_SIMPLE _IS_ANGELRING_OFF _IS_CLIPPING_OFF _IS_OUTLINE_CLIPPING_NO
    _MatCap _OUTLINE_NML
  m_LightmapFlags: 5
  m_EnableInstancingVariants: 0
  m_DoubleSidedGI: 0
  m_CustomRenderQueue: -1
  stringTagMap:
    IgnoreProjection: False
    RenderType: Opaque
  disabledShaderPasses: []
  m_SavedProperties:
    serializedVersion: 3
    m_TexEnvs:
    - _1st_ShadeMap:
        m_Texture: {fileID: 2800000, guid: 62e193c9b68a41c184348f5b16d028d5, type: 3}
        m_Scale: {x: 1, y: 1}
        m_Offset: {x: 0, y: 0}
    - _2nd_ShadeMap:
        m_Texture: {fileID: 0}
        m_Scale: {x: 1, y: 1}
        m_Offset: {x: 0, y: 0}
    - _AngelRing_Sampler:
        m_Texture: {fileID: 0}
        m_Scale: {x: 1, y: 1}
        m_Offset: {x: 0, y: 0}
    - _BakedNormal:
        m_Texture: {fileID: 0}
        m_Scale: {x: 1, y: 1}
        m_Offset: {x: 0, y: 0}
    - _BaseMap:
        m_Texture: {fileID: 0}
        m_Scale: {x: 1, y: 1}
        m_Offset: {x: 0, y: 0}
    - _ClippingMask:
        m_Texture: {fileID: 2800000, guid: 0ad32f49f21e4f18be709bb751f2fb12, type: 3}
        m_Scale: {x: 1, y: 1}
        m_Offset: {x: 0, y: 0}
    - _Emissive_Tex:
        m_Texture: {fileID: 0}
        m_Scale: {x: 1, y: 1}
        m_Offset: {x: 0, y: 0}
    - _HighColor_Tex:
        m_Texture: {fileID: 0}
        m_Scale: {x: 1, y: 1}
        m_Offset: {x: 0, y: 0}
    - _HighColor_TexSynthesized:
        m_Texture: {fileID: 0}
        m_Scale: {x: 1, y: 1}
        m_Offset: {x: 0, y: 0}
    - _MainTex:
        m_Texture: {fileID: 2800000, guid: 260969ba425f4113957805452b42cbee, type: 3}
        m_Scale: {x: 1, y: 1}
        m_Offset: {x: 0, y: 0}
    - _MainTexSynthesized:
        m_Texture: {fileID: 0}
        m_Scale: {x: 1, y: 1}
        m_Offset: {x: 0, y: 0}
    - _MatCap_Sampler:
        m_Texture: {fileID: 2800000, guid: 7ff4ade7173442c78ef1007d2175deab, type: 3}
        m_Scale: {x: 2, y: 4}
        m_Offset: {x: 0, y: 0}
    - _MatCap_SamplerSynthesized:
        m_Texture: {fileID: 0}
        m_Scale: {x: 1, y: 1}
        m_Offset: {x: 0, y: 0}
    - _NormalMap:
        m_Texture: {fileID: 2800000, guid: 0e2563b29ba4424eba71953999adcb96, type: 3}
        m_Scale: {x: 1, y: 1}
        m_Offset: {x: 0, y: 0}
    - _NormalMapForMatCap:
        m_Texture: {fileID: 2800000, guid: 13565dfa826d461d8a84ad72a15b834a, type: 3}
        m_Scale: {x: 50, y: 0.001}
        m_Offset: {x: 0, y: 0.5}
    - _OutlineTex:
        m_Texture: {fileID: 0}
        m_Scale: {x: 1, y: 1}
        m_Offset: {x: 0, y: 0}
    - _Outline_Sampler:
        m_Texture: {fileID: 2800000, guid: 3ecdce4c5aa5464ab5ee486e0853ad50, type: 3}
        m_Scale: {x: 1, y: 1}
        m_Offset: {x: 0, y: 0}
    - _Outline_SamplerSynthesized:
        m_Texture: {fileID: 0}
        m_Scale: {x: 1, y: 1}
        m_Offset: {x: 0, y: 0}
    - _Set_1st_ShadePosition:
        m_Texture: {fileID: 0}
        m_Scale: {x: 1, y: 1}
        m_Offset: {x: 0, y: 0}
    - _Set_2nd_ShadePosition:
        m_Texture: {fileID: 0}
        m_Scale: {x: 1, y: 1}
        m_Offset: {x: 0, y: 0}
    - _Set_HighColorMask:
        m_Texture: {fileID: 0}
        m_Scale: {x: 1, y: 1}
        m_Offset: {x: 0, y: 0}
    - _Set_MatcapMask:
        m_Texture: {fileID: 0}
        m_Scale: {x: 1, y: 1}
        m_Offset: {x: 0, y: 0}
    - _Set_RimLightMask:
        m_Texture: {fileID: 0}
        m_Scale: {x: 1, y: 1}
        m_Offset: {x: 0, y: 0}
    - _ShadingGradeMap:
        m_Texture: {fileID: 0}
        m_Scale: {x: 1, y: 1}
        m_Offset: {x: 0, y: 0}
    - _ShadowControlSynthesized:
        m_Texture: {fileID: 0}
        m_Scale: {x: 1, y: 1}
        m_Offset: {x: 0, y: 0}
    m_Floats:
    - _1st2nd_Shades_Feather: 0.0001
    - _1st_ShadeColor_Feather: 0.0001
    - _1st_ShadeColor_Step: 0.526
    - _2nd_ShadeColor_Feather: 0.0001
    - _2nd_ShadeColor_Step: 0
    - _ARSampler_AlphaOn: 0
    - _AR_OffsetU: 0
    - _AR_OffsetV: 0.3
    - _Add_Antipodean_RimLight: 0
    - _AngelRing: 0
    - _Ap_RimLight_FeatherOff: 0
    - _Ap_RimLight_Power: 0.1
    - _AutoRenderQueue: 1
    - _BaseColor_Step: 0.526
    - _BaseShade_Feather: 0.0001
    - _Base_Speed: 0
    - _BlurLevelMatcap: 0
    - _BlurLevelSGM: 0
    - _BumpScale: 1
    - _BumpScaleMatcap: 1
    - _CameraRolling_Stabilizer: 0
    - _ClippingMode: 0
    - _Clipping_Level: 0.269
    - _ColorShift_Speed: 0
    - _CullMode: 2
    - _Cutoff: 0.5
    - _EMISSIVE: 0
    - _Farthest_Distance: 10
    - _GI_Intensity: 0
    - _HighColor_Power: 0
    - _Inverse_Clipping: 1
    - _Inverse_MatcapMask: 0
    - _Inverse_Z_Axis_BLD: 1
    - _IsBaseMapAlphaAsClippingMask: 0
    - _Is_BLD: 0
    - _Is_BakedNormal: 0
    - _Is_BlendAddToHiColor: 1
    - _Is_BlendAddToMatCap: 1
    - _Is_BlendBaseColor: 0
    - _Is_ColorShift: 0
    - _Is_Filter_HiCutPointLightColor: 1
    - _Is_Filter_LightColor: 0
    - _Is_LightColor_1st_Shade: 0
    - _Is_LightColor_2nd_Shade: 0
    - _Is_LightColor_AR: 1
    - _Is_LightColor_Ap_RimLight: 0
    - _Is_LightColor_Base: 1
    - _Is_LightColor_HighColor: 0
    - _Is_LightColor_MatCap: 0
    - _Is_LightColor_Outline: 1
    - _Is_LightColor_RimLight: 0
    - _Is_NormalMapForMatCap: 1
    - _Is_NormalMapToBase: 1
    - _Is_NormalMapToHighColor: 0
    - _Is_NormalMapToRimLight: 1
    - _Is_Ortho: 0
    - _Is_OutlineTex: 0
    - _Is_PingPong_Base: 0
    - _Is_SpecularToHighColor: 1
    - _Is_UseTweakHighColorOnShadow: 0
    - _Is_UseTweakMatCapOnShadow: 1
    - _Is_ViewCoord_Scroll: 0
    - _Is_ViewShift: 0
    - _LightDirection_MaskOn: 0
    - _MatCap: 1
    - _Nearest_Distance: 0.5
    - _OUTLINE: 0
    - _Offset_X_Axis_BLD: -0.05
    - _Offset_Y_Axis_BLD: 0.09
    - _Offset_Z: 0
    - _Outline_Width: 5
    - _RimLight: 1
    - _RimLight_FeatherOff: 0
    - _RimLight_InsideMask: 0.0001
    - _RimLight_Power: 0.32
    - _Rotate_EmissiveUV: 0
    - _Rotate_MatCapUV: 0
    - _Rotate_NormalMapForMatCapUV: 0
    - _SPRDefaultUnlitColorMask: 15
    - _SRPDefaultUnlitColMode: 1
    - _Scroll_EmissiveU: 0
    - _Scroll_EmissiveV: 0
    - _Set_SystemShadowsToBase: 1
    - _ShadeColor_Step: 0
    - _StencilComp: 0
    - _StencilMode: 0
    - _StencilNo: 1
    - _StencilOpFail: 0
    - _StencilOpPass: 0
    - _StepOffset: 0
    - _TransparentEnabled: 0
    - _TweakHighColorOnShadow: 0
    - _TweakMatCapOnShadow: 0.13
    - _Tweak_HighColorMaskLevel: 0
    - _Tweak_LightDirection_MaskLevel: 0
    - _Tweak_MatCapUV: -0.3
    - _Tweak_MatcapMaskLevel: 0
    - _Tweak_RimLightMaskLevel: 0
    - _Tweak_ShadingGradeMapLevel: 0
    - _Tweak_SystemShadowsLevel: 0
    - _Tweak_transparency: 0
    - _Unlit_Intensity: 0.001
    - _Use_1stAs2nd: 1
    - _Use_BaseAs1st: 0
    - _ZOverDrawMode: 0
    - _ZWriteMode: 1
    - _isUnityToonshader: 1
    - _simpleUI: 0
    - _utsTechnique: 0
    - _utsVersion: 2.075
    - _utsVersionX: 0
    - _utsVersionY: 0
    - _utsVersionZ: 2
    m_Colors:
    - _1st_ShadeColor: {r: 0.15294118, g: 0.15294118, b: 0.15294118, a: 1}
    - _2nd_ShadeColor: {r: 0, g: 0, b: 0, a: 1}
    - _AngelRing_Color: {r: 1, g: 1, b: 1, a: 1}
    - _Ap_RimLightColor: {r: 1, g: 1, b: 1, a: 1}
    - _BaseColor: {r: 0.43529412, g: 0.43529412, b: 0.43529412, a: 1}
    - _Color: {r: 0.4352941, g: 0.4352941, b: 0.4352941, a: 1}
    - _ColorShift: {r: 0, g: 0, b: 0, a: 1}
    - _Emissive_Color: {r: 0, g: 0, b: 0, a: 1}
    - _HighColor: {r: 0, g: 0, b: 0, a: 1}
    - _MatCapColor: {r: 0, g: 0.10694719, b: 0.41911763, a: 1}
    - _Outline_Color: {r: 0, g: 0, b: 0, a: 1}
    - _RimLightColor: {r: 0.10845949, g: 0.0934256, b: 0.5294118, a: 1}
    - _ViewShift: {r: 0, g: 0, b: 0, a: 1}
