%YAML 1.1
%TAG !u! tag:unity3d.com,2011:
--- !u!21 &2100000
Material:
  serializedVersion: 6
  m_ObjectHideFlags: 0
  m_CorrespondingSourceObject: {fileID: 0}
  m_PrefabInstance: {fileID: 0}
  m_PrefabAsset: {fileID: 0}
  m_Name: hair_main
  m_Shader: {fileID: 4800000, guid: 9baf30ce95c751649b14d96da3a4b4d5, type: 3}
  m_ShaderKeywords: _ _EMISSIVE_SIMPLE _IS_ANGELRING_ON _IS_TRANSCLIPPING_OFF _OUTLINE_NML
    _SHADINGGRADEMAP
  m_LightmapFlags: 1
  m_EnableInstancingVariants: 0
  m_DoubleSidedGI: 0
  m_CustomRenderQueue: -1
  stringTagMap:
    IgnoreProjection: False
    RenderType: Opaque
  disabledShaderPasses: []
  m_SavedProperties:
    serializedVersion: 3
    m_TexEnvs:
    - _1st_ShadeMap:
        m_Texture: {fileID: 2800000, guid: 5d2eafc7ecc44df9bc1c0b8abc26e172, type: 3}
        m_Scale: {x: 1, y: 1}
        m_Offset: {x: 0, y: 0}
    - _2nd_ShadeMap:
        m_Texture: {fileID: 0}
        m_Scale: {x: 1, y: 1}
        m_Offset: {x: 0, y: 0}
    - _AngelRing:
        m_Texture: {fileID: 2800000, guid: 00fd510561d09474282eda0be4c065b7, type: 3}
        m_Scale: {x: 1, y: 1}
        m_Offset: {x: 0, y: 0}
    - _AngelRing_Sampler:
        m_Texture: {fileID: 2800000, guid: d180c26471724819a6704907314f8969, type: 3}
        m_Scale: {x: 1, y: 1}
        m_Offset: {x: 0, y: 0}
    - _BakedNormal:
        m_Texture: {fileID: 0}
        m_Scale: {x: 1, y: 1}
        m_Offset: {x: 0, y: 0}
    - _BaseMap:
        m_Texture: {fileID: 0}
        m_Scale: {x: 1, y: 1}
        m_Offset: {x: 0, y: 0}
    - _ClippingMask:
        m_Texture: {fileID: 0}
        m_Scale: {x: 1, y: 1}
        m_Offset: {x: 0, y: 0}
    - _Emissive_Tex:
        m_Texture: {fileID: 0}
        m_Scale: {x: 1, y: 1}
        m_Offset: {x: 0, y: 0}
    - _HighColor_Tex:
        m_Texture: {fileID: 0}
        m_Scale: {x: 1, y: 1}
        m_Offset: {x: 0, y: 0}
    - _HighColor_TexSynthesized:
        m_Texture: {fileID: 0}
        m_Scale: {x: 1, y: 1}
        m_Offset: {x: 0, y: 0}
    - _MainTex:
        m_Texture: {fileID: 2800000, guid: 93e8e472bd064b7bbf27a8f4c36e7877, type: 3}
        m_Scale: {x: 1, y: 1}
        m_Offset: {x: 0, y: 0}
    - _MainTexSynthesized:
        m_Texture: {fileID: 2800000, guid: 4d9bf763a67f05047b9d8d71fff3aa67, type: 3}
        m_Scale: {x: 1, y: 1}
        m_Offset: {x: 0, y: 0}
    - _MatCap_Sampler:
        m_Texture: {fileID: 0}
        m_Scale: {x: 1, y: 1}
        m_Offset: {x: 0, y: 0}
    - _MatCap_SamplerSynthesized:
        m_Texture: {fileID: 0}
        m_Scale: {x: 1, y: 1}
        m_Offset: {x: 0, y: 0}
    - _NormalMap:
        m_Texture: {fileID: 0}
        m_Scale: {x: 1, y: 1}
        m_Offset: {x: 0, y: 0}
    - _NormalMapForMatCap:
        m_Texture: {fileID: 0}
        m_Scale: {x: 1, y: 1}
        m_Offset: {x: 0, y: 0}
    - _OutlineTex:
        m_Texture: {fileID: 0}
        m_Scale: {x: 1, y: 1}
        m_Offset: {x: 0, y: 0}
    - _Outline_Sampler:
        m_Texture: {fileID: 0}
        m_Scale: {x: 1, y: 1}
        m_Offset: {x: 0, y: 0}
    - _Outline_SamplerSynthesized:
        m_Texture: {fileID: 0}
        m_Scale: {x: 1, y: 1}
        m_Offset: {x: 0, y: 0}
    - _Set_1st_ShadePosition:
        m_Texture: {fileID: 0}
        m_Scale: {x: 1, y: 1}
        m_Offset: {x: 0, y: 0}
    - _Set_2nd_ShadePosition:
        m_Texture: {fileID: 0}
        m_Scale: {x: 1, y: 1}
        m_Offset: {x: 0, y: 0}
    - _Set_HighColorMask:
        m_Texture: {fileID: 0}
        m_Scale: {x: 1, y: 1}
        m_Offset: {x: 0, y: 0}
    - _Set_MatcapMask:
        m_Texture: {fileID: 0}
        m_Scale: {x: 1, y: 1}
        m_Offset: {x: 0, y: 0}
    - _Set_RimLightMask:
        m_Texture: {fileID: 0}
        m_Scale: {x: 1, y: 1}
        m_Offset: {x: 0, y: 0}
    - _ShadingGradeMap:
        m_Texture: {fileID: 2800000, guid: 7c52bc7f116e488e995d2d3c9d6c7d76, type: 3}
        m_Scale: {x: 1, y: 1}
        m_Offset: {x: 0, y: 0}
    - _ShadowControlSynthesized:
        m_Texture: {fileID: 2800000, guid: 06aecd950408d9b4cb643042d0ee8e7b, type: 3}
        m_Scale: {x: 1, y: 1}
        m_Offset: {x: 0, y: 0}
    m_Floats:
    - _1st2nd_Shades_Feather: 0.0001
    - _1st_ShadeColor_Feather: 0.179
    - _1st_ShadeColor_Step: 0.213
    - _2nd_ShadeColor_Feather: 0.0001
    - _2nd_ShadeColor_Step: 0
    - _ARSampler_AlphaOn: 0
    - _AR_OffsetU: 0
    - _AR_OffsetV: 0.3
    - _Add_Antipodean_RimLight: 0
    - _AngelRing: 1
    - _Ap_RimLight_FeatherOff: 0
    - _Ap_RimLight_Power: 0.1
    - _AutoRenderQueue: 1
    - _BaseColor_Step: 0.213
    - _BaseShade_Feather: 0.179
    - _Base_Speed: 0
    - _BlurLevelMatcap: 0
    - _BlurLevelSGM: 0
    - _BumpScale: 1
    - _BumpScaleMatcap: 1
    - _CameraRolling_Stabilizer: 0
    - _ClippingMaskGUID_0: 0
    - _ClippingMaskGUID_1: 0
    - _ClippingMaskGUID_2: 0
    - _ClippingMaskGUID_3: 0
    - _ClippingMaskHash128_0: 0
    - _ClippingMaskHash128_1: 0
    - _ClippingMaskHash128_2: 0
    - _ClippingMaskHash128_3: 0
    - _ClippingMode: 0
    - _Clipping_Level: 0
    - _ColorShift_Speed: 0
    - _CullMode: 2
    - _EMISSIVE: 0
    - _Farthest_Distance: 30
    - _GI_Intensity: 0
    - _HighColor_Power: 0
    - _HighColor_TexGUID_0: 0
    - _HighColor_TexGUID_1: 0
    - _HighColor_TexGUID_2: 0
    - _HighColor_TexGUID_3: 0
    - _HighColor_TexHash128_0: 0
    - _HighColor_TexHash128_1: 0
    - _HighColor_TexHash128_2: 0
    - _HighColor_TexHash128_3: 0
    - _Inverse_Clipping: 0
    - _Inverse_MatcapMask: 0
    - _Inverse_Z_Axis_BLD: 1
    - _IsBaseMapAlphaAsClippingMask: 0
    - _Is_BLD: 0
    - _Is_BakedNormal: 0
    - _Is_BlendAddToHiColor: 0
    - _Is_BlendAddToMatCap: 2
    - _Is_BlendBaseColor: 0
    - _Is_ColorShift: 0
    - _Is_Filter_HiCutPointLightColor: 1
    - _Is_Filter_LightColor: 0
    - _Is_LightColor_1st_Shade: 1
    - _Is_LightColor_2nd_Shade: 1
    - _Is_LightColor_AR: 0
    - _Is_LightColor_Ap_RimLight: 1
    - _Is_LightColor_Base: 1
    - _Is_LightColor_HighColor: 1
    - _Is_LightColor_MatCap: 1
    - _Is_LightColor_Outline: 1
    - _Is_LightColor_RimLight: 1
    - _Is_NormalMapForMatCap: 0
    - _Is_NormalMapToBase: 0
    - _Is_NormalMapToHighColor: 0
    - _Is_NormalMapToRimLight: 0
    - _Is_Ortho: 0
    - _Is_OutlineTex: 0
    - _Is_PingPong_Base: 0
    - _Is_SpecularToHighColor: 0
    - _Is_UseTweakHighColorOnShadow: 0
    - _Is_UseTweakMatCapOnShadow: 0
    - _Is_ViewCoord_Scroll: 0
    - _Is_ViewShift: 0
    - _LightDirection_MaskOn: 0
    - _MainTexGUID_0: 0
    - _MainTexGUID_1: 0
    - _MainTexGUID_2: 0
    - _MainTexGUID_3: 0
    - _MainTexHash128_0: 0
    - _MainTexHash128_1: 0
    - _MainTexHash128_2: 0
    - _MainTexHash128_3: 0
    - _MatCap: 0
    - _MatCap_SamplerGUID_0: 0
    - _MatCap_SamplerGUID_1: 0
    - _MatCap_SamplerGUID_2: 0
    - _MatCap_SamplerGUID_3: 0
    - _MatCap_SamplerHash128_0: 0
    - _MatCap_SamplerHash128_1: 0
    - _MatCap_SamplerHash128_2: 0
    - _MatCap_SamplerHash128_3: 0
    - _Nearest_Distance: 0.5
    - _OUTLINE: 0
    - _Offset_X_Axis_BLD: -0.05
    - _Offset_Y_Axis_BLD: 0.09
    - _Offset_Z: 0
    - _OutlineTexGUID_0: 0
    - _OutlineTexGUID_1: 0
    - _OutlineTexGUID_2: 0
    - _OutlineTexGUID_3: 0
    - _OutlineTexHash128_0: 0
    - _OutlineTexHash128_1: 0
    - _OutlineTexHash128_2: 0
    - _OutlineTexHash128_3: 0
    - _Outline_SamplerGUID_0: 0
    - _Outline_SamplerGUID_1: 0
    - _Outline_SamplerGUID_2: 0
    - _Outline_SamplerGUID_3: 0
    - _Outline_SamplerHash128_0: 0
    - _Outline_SamplerHash128_1: 0
    - _Outline_SamplerHash128_2: 0
    - _Outline_SamplerHash128_3: 0
    - _Outline_Width: 10
    - _RimLight: 0
    - _RimLight_FeatherOff: 0
    - _RimLight_InsideMask: 0.0001
    - _RimLight_Power: 0
    - _Rotate_EmissiveUV: 0
    - _Rotate_MatCapUV: 0
    - _Rotate_NormalMapForMatCapUV: 0
    - _SPRDefaultUnlitColorMask: 15
    - _SRPDefaultUnlitColMode: 1
    - _Scroll_EmissiveU: 0
    - _Scroll_EmissiveV: 0
    - _Set_1st_ShadePositionGUID_0: 0
    - _Set_1st_ShadePositionGUID_1: 0
    - _Set_1st_ShadePositionGUID_2: 0
    - _Set_1st_ShadePositionGUID_3: 0
    - _Set_1st_ShadePositionHash128_0: 0
    - _Set_1st_ShadePositionHash128_1: 0
    - _Set_1st_ShadePositionHash128_2: 0
    - _Set_1st_ShadePositionHash128_3: 0
    - _Set_2nd_ShadePositionGUID_0: 0
    - _Set_2nd_ShadePositionGUID_1: 0
    - _Set_2nd_ShadePositionGUID_2: 0
    - _Set_2nd_ShadePositionGUID_3: 0
    - _Set_2nd_ShadePositionHash128_0: 0
    - _Set_2nd_ShadePositionHash128_1: 0
    - _Set_2nd_ShadePositionHash128_2: 0
    - _Set_2nd_ShadePositionHash128_3: 0
    - _Set_HighColorMaskGUID_0: 0
    - _Set_HighColorMaskGUID_1: 0
    - _Set_HighColorMaskGUID_2: 0
    - _Set_HighColorMaskGUID_3: 0
    - _Set_HighColorMaskHash128_0: 0
    - _Set_HighColorMaskHash128_1: 0
    - _Set_HighColorMaskHash128_2: 0
    - _Set_HighColorMaskHash128_3: 0
    - _Set_MatcapMaskGUID_0: 0
    - _Set_MatcapMaskGUID_1: 0
    - _Set_MatcapMaskGUID_2: 0
    - _Set_MatcapMaskGUID_3: 0
    - _Set_MatcapMaskHash128_0: 0
    - _Set_MatcapMaskHash128_1: 0
    - _Set_MatcapMaskHash128_2: 0
    - _Set_MatcapMaskHash128_3: 0
    - _Set_RimLightMaskGUID_0: 0
    - _Set_RimLightMaskGUID_1: 0
    - _Set_RimLightMaskGUID_2: 0
    - _Set_RimLightMaskGUID_3: 0
    - _Set_RimLightMaskHash128_0: 0
    - _Set_RimLightMaskHash128_1: 0
    - _Set_RimLightMaskHash128_2: 0
    - _Set_RimLightMaskHash128_3: 0
    - _Set_SystemShadowsToBase: 1
    - _ShadeColor_Step: 0
    - _ShadingGradeMapGUID_0: 0
    - _ShadingGradeMapGUID_1: 0
    - _ShadingGradeMapGUID_2: 0
    - _ShadingGradeMapGUID_3: 0
    - _ShadingGradeMapHash128_0: 0
    - _ShadingGradeMapHash128_1: 0
    - _ShadingGradeMapHash128_2: 0
    - _ShadingGradeMapHash128_3: 0
    - _StencilComp: 0
    - _StencilMode: 0
    - _StencilNo: 1
    - _StencilOpFail: 0
    - _StencilOpPass: 0
    - _StepOffset: 0
    - _TessEdgeLength: 5
    - _TessExtrusionAmount: 0
    - _TessPhongStrength: 0.5
    - _TransparentEnabled: 0
    - _TweakHighColorOnShadow: 0
    - _TweakMatCapOnShadow: 0
    - _Tweak_HighColorMaskLevel: 0
    - _Tweak_LightDirection_MaskLevel: 0
    - _Tweak_MatCapUV: 0
    - _Tweak_MatcapMaskLevel: 0
    - _Tweak_RimLightMaskLevel: 0
    - _Tweak_ShadingGradeMapLevel: -0.227
    - _Tweak_SystemShadowsLevel: -0.052
    - _Tweak_transparency: 0
    - _Unlit_Intensity: 1
    - _Use_1stAs2nd: 0
    - _Use_BaseAs1st: 0
    - _ZOverDrawMode: 0
    - _ZWriteMode: 1
    - _isUnityToonshader: 1
    - _simpleUI: 0
    - _utsTechnique: 1
    - _utsVersion: 2.075
    - _utsVersionX: 0
    - _utsVersionY: 0
    - _utsVersionZ: 2
    m_Colors:
    - _1st_ShadeColor: {r: 1, g: 1, b: 1, a: 1}
    - _2nd_ShadeColor: {r: 1, g: 1, b: 1, a: 1}
    - _AngelRing_Color: {r: 1, g: 1, b: 1, a: 1}
    - _Ap_RimLightColor: {r: 1, g: 1, b: 1, a: 1}
    - _BaseColor: {r: 1, g: 1, b: 1, a: 1}
    - _Color: {r: 1, g: 1, b: 1, a: 1}
    - _ColorShift: {r: 0, g: 0, b: 0, a: 1}
    - _Emissive_Color: {r: 0, g: 0, b: 0, a: 1}
    - _HighColor: {r: 1, g: 1, b: 1, a: 1}
    - _MatCapColor: {r: 1, g: 1, b: 1, a: 1}
    - _Outline_Color: {r: 0.2647059, g: 0.21215399, b: 0.21215399, a: 1}
    - _RimLightColor: {r: 1, g: 1, b: 1, a: 1}
    - _ViewShift: {r: 0, g: 0, b: 0, a: 1}
